<?xml version="1.0" encoding="utf-8"?>
<!-- Generator: Adobe Illustrator 16.0.0, SVG Export Plug-In . SVG Version: 6.00 Build 0)  -->
<!DOCTYPE svg PUBLIC "-//W3C//DTD SVG 1.1//EN" "http://www.w3.org/Graphics/SVG/1.1/DTD/svg11.dtd">
<svg version="1.1" id="Layer_1" xmlns="http://www.w3.org/2000/svg" xmlns:xlink="http://www.w3.org/1999/xlink" x="0px" y="0px"
	 width="203.323px" height="95px" viewBox="0 0 203.323 95" enable-background="new 0 0 203.323 95" xml:space="preserve">
<g>
	<defs>
		<rect id="SVGID_1_" width="203.323" height="95"/>
	</defs>
	<clipPath id="SVGID_2_">
		<use xlink:href="#SVGID_1_"  overflow="visible"/>
	</clipPath>
	<g clip-path="url(#SVGID_2_)">
		<defs>
			<rect id="SVGID_3_" width="203.323" height="95"/>
		</defs>
		<clipPath id="SVGID_4_">
			<use xlink:href="#SVGID_3_"  overflow="visible"/>
		</clipPath>
		<g opacity="0.8" clip-path="url(#SVGID_4_)">
			<g>
				<defs>
					<rect id="SVGID_5_" width="95" height="95"/>
				</defs>
				<clipPath id="SVGID_6_">
					<use xlink:href="#SVGID_5_"  overflow="visible"/>
				</clipPath>
				<path clip-path="url(#SVGID_6_)" fill="#FDB924" d="M89.339,70C92.948,63.303,95,55.641,95,47.5C95,21.266,73.733,0,47.5,0
					C21.266,0,0,21.266,0,47.5C0,55.641,2.051,63.303,5.66,70H89.339z"/>
				<path clip-path="url(#SVGID_6_)" fill="#FDB924" d="M79.045,83H15.954c1.194,1.062,2.442,2.062,3.74,3h55.612
					C76.603,85.062,77.852,84.062,79.045,83"/>
				<path clip-path="url(#SVGID_6_)" fill="#FDB924" d="M6.226,71c0.583,1.022,1.193,2.027,1.849,3h78.849
					c0.655-0.973,1.266-1.978,1.849-3H6.226z"/>
				<path clip-path="url(#SVGID_6_)" fill="#FDB924" d="M30.869,92c5.177,1.936,10.779,3,16.631,3s11.454-1.064,16.63-3H30.869z"/>
				<path clip-path="url(#SVGID_6_)" fill="#FDB924" d="M9.499,76c0.778,1.035,1.603,2.033,2.461,3h71.08
					c0.858-0.967,1.683-1.965,2.461-3H9.499z"/>
			</g>
		</g>
		<path clip-path="url(#SVGID_4_)" fill="#FFFFFF" d="M11.798,60.249c-0.091,0-0.187-0.02-0.285-0.062
			c-0.212-0.094-0.383-0.33-0.591-0.446c-0.161-0.09-0.337-0.104-0.405-0.298c-0.043-0.12,0.011-0.277-0.018-0.406
			c-0.026-0.118-0.034-0.379-0.121-0.379c-0.044,0-0.075,0.031-0.122,0.031c-0.143,0-0.201-0.246-0.263-0.479
			c-0.027-0.101-0.068-0.194-0.068-0.286c0-0.222,0.273-0.247,0.352-0.423c0.138-0.31,0.139-0.385,0.139-0.621
			c0-0.304-0.154-0.585,0.001-0.825c0.062-0.099,0.153-0.133,0.217-0.244c0.067-0.116,0.039-0.174,0.08-0.287
			c0.107-0.295,0.098-0.29,0.42-0.844c0.257-0.443,0.579-0.89,0.795-1.324c0.122-0.245,0.314-0.43,0.438-0.677
			c0.073-0.146,0.159-0.325,0.252-0.454c0.275-0.384,0.463-0.771,0.749-1.146c0.321-0.42,0.283-0.851,0.519-1.175
			c0.227-0.31,0.444-0.511,0.526-0.687c0.112-0.241,0.152-0.358,0.329-0.592c0.12-0.159,0.268-0.423,0.39-0.586
			c0.157-0.212,0.24-0.417,0.395-0.606c0.133-0.163,1.105-1.82,1.256-1.997c0.132-0.154,0.386-0.482,0.386-0.677
			c0-0.166-0.043-0.381-0.438-0.666c-0.28-0.202-0.403-0.448-0.403-0.658c0-0.17,0.072-0.354,0.256-0.55
			c0.401-0.428,0.451-0.652,0.799-0.897c0.087-0.061,0.387-0.436,0.636-0.669c0.212-0.197,0.579-0.731,0.75-0.826
			c0.071-0.039,0.261-0.069,0.319-0.12c0.137-0.126,0.227-0.436,0.448-0.637c0.256-0.232,0.496-0.4,0.721-0.629
			c0.41-0.416,0.824-0.812,1.223-1.233c0.374-0.394,0.797-0.881,1.116-1.079c0.223-0.137,0.435-0.146,0.515-0.146
			c0.205,0,0.489,0.2,0.629,0.383c0.167,0.218,0.605,0.51,0.737,0.747c0.16,0.286,0.574,0.509,0.574,0.854
			c0,0.286-0.29,0.52-0.388,0.66c-0.134,0.193-0.183,0.421-0.319,0.613c-0.128,0.178-0.307,0.313-0.442,0.486
			c-0.211,0.271-0.355,0.575-0.499,0.875c-0.229,0.475-0.517,0.931-0.755,1.404c-0.13,0.257-0.393,0.496-0.558,0.733
			c-0.171,0.243-0.378,0.428-0.516,0.7c-0.259,0.511-0.529,0.984-0.844,1.464c-0.351,0.537-0.669,1.128-1.107,1.652
			c-0.309,0.372-0.613,0.948-0.89,1.345c-0.15,0.212-0.192,0.448-0.323,0.668c-0.163,0.274-0.359,0.505-0.493,0.8
			c-0.514,1.079-0.987,1.92-1.601,2.947c-0.506,0.847-1.08,1.614-1.504,2.516c-0.123,0.262-0.251,0.489-0.439,0.709
			c-0.138,0.162-0.185,0.329-0.298,0.507c-0.108,0.168-0.269,0.264-0.347,0.453c-0.139,0.339-0.218,0.664-0.398,0.993
			c-0.234,0.429-0.404,0.896-0.614,1.338C12.551,59.842,12.217,60.249,11.798,60.249z"/>
		<path clip-path="url(#SVGID_4_)" fill="#FFFFFF" d="M22.441,59.832c-0.568-0.349-1.054-0.747-1.3-1.385
			c-0.087-0.226-0.205-0.447-0.197-0.683c0.004-0.092,0.025-0.184,0.074-0.279c0.136-0.268,0.507-0.584,0.805-0.584
			c0.322,0,0.716,0.297,0.974,0.43c0.255,0.131,0.486,0.223,0.761,0.223c0.381,0,0.795-0.228,1.16-0.381
			c0.264-0.111,0.757-0.312,0.966-0.502c0.193-0.175,0.293-0.366,0.459-0.439c0.145-0.065,0.216,0.004,0.371-0.079
			c0.144-0.077,0.236-0.206,0.365-0.299c0.23-0.169,0.5-0.275,0.744-0.42c0.135-0.08,0.255-0.184,0.385-0.271
			c0.199-0.134,0.311-0.032,0.482-0.166c0.206-0.162,0.298-0.329,0.552-0.483c0.135-0.082,0.186-0.087,0.327-0.212
			c0.107-0.095,0.173-0.25,0.229-0.284c0.08-0.05,0.133-0.106,0.194-0.179c0.122-0.144,0.25-0.318,0.323-0.479
			c0.092-0.208,0.096-0.398,0.285-0.578c0.192-0.182,0.454-0.167,0.608-0.37c0.148-0.195,0.302-0.301,0.44-0.477
			c0.111-0.144,0.07-0.257,0.157-0.36c0.101-0.118,0.318-0.144,0.322-0.249c0.001-0.032-0.02-0.085-0.017-0.161
			c0.005-0.141,0.085-0.276,0.192-0.413c0.109-0.137,0.246-0.271,0.361-0.408c0.072-0.087,0.398-0.371,0.403-0.524
			c0.003-0.077-0.05-0.1-0.122-0.1c-0.2,0-0.678,0.267-0.796,0.336c-0.512,0.312-0.999,0.478-1.552,0.689
			c-0.788,0.288-1.426,0.608-2.103,0.596c-0.5-0.008-1.071-0.146-1.478-0.298c-0.481-0.18-0.87-0.485-1.156-0.889
			c-0.316-0.445-0.595-0.782-0.798-1.297c-0.086-0.218-0.221-0.542-0.307-0.741c-0.044-0.102-0.048-0.234-0.041-0.367
			c0.017-0.321,0.011-0.661,0.029-1.003c0.016-0.306,0.205-0.613,0.137-0.907c-0.097-0.427,0.236-0.902,0.41-1.386
			c0.078-0.217,0.113-0.321,0.297-0.502c0.187-0.185,0.436-0.299,0.426-0.576c-0.009-0.22-0.146-0.358,0.262-0.605
			c0.249-0.151,0.254-0.224,0.35-0.473c0.082-0.213,0.121-0.434,0.406-0.728c0.13-0.133,0.441-0.379,0.446-0.472
			c0.002-0.045-0.103-0.11-0.176-0.112c-0.066-0.001-0.09-0.027-0.085-0.072c0.029-0.232,0.926-0.936,0.998-0.998
			c0.185-0.158,0.396-0.199,0.581-0.334c0.084-0.062,0.356-0.426,0.474-0.423c0.071,0.001,0.028,0.1,0.155,0.102
			c0.096,0.001,0.374-0.052,0.38-0.171c0.004-0.057-0.03-0.128-0.023-0.245c0.013-0.253,0.255-0.455,0.553-0.619
			c0.358-0.197,0.769-0.516,0.984-0.631c0.528-0.27,0.965-0.565,1.48-0.837c0.283-0.149,0.561-0.261,0.993-0.254
			c0.352,0.006,0.443,0.296,0.667,0.3c0.29,0.005,0.649-0.279,1.016-0.272c0.296,0.005,0.503,0.095,0.763,0.129
			c0.728,0.082,1.367,0.088,1.871,0.63c0.208,0.223,0.412,0.635,0.685,0.784c0.306,0.167,0.504,0.307,0.71,0.597
			c0.392,0.548,0.789,1.294,0.893,1.982c0.045,0.308,0.056,0.642,0.045,0.979c-0.015,0.41-0.063,0.825-0.118,1.205
			c-0.058,0.392-0.066,0.796-0.138,1.184c-0.066,0.354-0.231,0.695-0.334,1.041c-0.104,0.343-0.22,0.629-0.394,0.945
			c-0.155,0.281-0.41,0.491-0.549,0.766c-0.316,0.626-0.389,1.287-0.789,1.894c-0.446,0.674-0.849,1.414-1.34,2.057
			c-0.475,0.622-0.968,1.234-1.443,1.857c-0.235,0.31-0.427,0.656-0.68,0.952c-0.235,0.274-0.512,0.507-0.745,0.786
			c-0.449,0.541-0.83,0.994-1.268,1.529c-0.499,0.609-1.151,1.138-1.708,1.707c-0.597,0.609-1.52,0.939-2.154,1.485
			c-0.229,0.197-0.601,0.498-0.876,0.61c-0.317,0.129-0.685,0.317-1.016,0.388c-0.396,0.086-0.775,0.279-1.167,0.349
			c-0.397,0.068-0.827,0.096-1.225,0.096C23.495,60.483,22.916,60.126,22.441,59.832 M28.719,48.568
			c0.231-0.046,0.465-0.05,0.698-0.067c0.52-0.039,0.777-0.224,1.372-0.577c0.398-0.227,0.828-0.392,1.228-0.618
			c0.475-0.267,0.886-0.634,1.307-0.981c0.465-0.383,0.988-0.813,1.408-1.245c0.353-0.365,0.827-0.756,1.085-1.193
			c0.106-0.178,0.144-0.382,0.242-0.564c0.103-0.191,0.239-0.344,0.32-0.546c0.199-0.498,0.419-1.127,0.437-1.656
			c0.011-0.319,0.059-0.529,0.067-0.757c0.019-0.542-0.422-0.848-0.963-0.848c-0.468-0.008-0.787-0.003-1.222,0.229
			c-0.417,0.232-0.92,0.246-1.274,0.469c-0.866,0.548-1.564,1.061-2.292,1.759c-0.794,0.761-1.462,1.44-1.971,2.223
			c-0.226,0.349-0.468,0.681-0.698,1.026c-0.29,0.435-0.407,0.936-0.575,1.417c-0.128,0.368-0.268,0.739-0.292,1.19
			c-0.021,0.406,0.258,0.835,0.632,0.842C28.39,48.673,28.563,48.598,28.719,48.568"/>
		<path clip-path="url(#SVGID_4_)" fill="#FFFFFF" d="M39.171,60.108c-0.14-0.086-0.373-0.259-0.461-0.368
			c-0.122-0.149-0.257-0.393-0.29-0.556c-0.03-0.153,0.001-0.342,0.034-0.496c0.038-0.178-0.019-0.411-0.019-0.595
			c0-0.381,0.464-0.855,0.589-0.962c0.293-0.251,0.878-0.469,1.156-0.469c0.429,0,0.886,0.085,1.262,0.268
			c0.175,0.084,0.351,0.263,0.417,0.43c0.051,0.126,0.137,0.766,0.137,0.891c0,0.137-0.019,0.288-0.076,0.4
			c-0.063,0.132-0.181,0.353-0.272,0.474c-0.232,0.309-0.297,0.501-0.584,0.729c-0.383,0.309-0.95,0.373-1.347,0.373
			C39.514,60.228,39.314,60.195,39.171,60.108 M42.647,51.368c-0.14-0.086-0.373-0.26-0.461-0.367
			c-0.122-0.151-0.257-0.395-0.289-0.557c-0.031-0.151-0.131-0.488-0.131-0.646c0-0.307,0.148-0.688,0.21-0.805
			c0.178-0.337,0.497-0.593,0.622-0.7c0.293-0.251,0.944-0.371,1.221-0.371c0.431,0,0.527,0.085,0.902,0.268
			c0.176,0.085,0.351,0.263,0.418,0.43c0.05,0.126,0.332,0.766,0.332,0.89c0,0.136-0.018,0.287-0.075,0.4
			c-0.063,0.133-0.181,0.353-0.271,0.474c-0.233,0.31-0.298,0.5-0.585,0.729c-0.384,0.308-0.852,0.472-1.249,0.472
			C43.088,51.586,42.79,51.457,42.647,51.368"/>
		<path clip-path="url(#SVGID_4_)" fill="#FFFFFF" d="M51.16,60.147c-0.592,0-0.902-0.04-1.457-0.102
			c-0.455-0.05-0.83-0.29-1.251-0.473c-0.212-0.094-0.422-0.168-0.61-0.312c-0.242-0.184-0.32-0.398-0.481-0.649
			c-0.292-0.453-0.686-0.826-0.909-1.319c-0.199-0.444-0.465-1.271-0.465-1.617c0-0.266,0.304-0.643,0.434-0.765
			c0.349-0.328,0.651-0.65,1.176-0.65c0.344,0,0.702,0.19,0.884,0.505c0.091,0.157,0.097,0.374,0.151,0.542
			c0.031,0.1,0.074,0.139,0.074,0.21c0,0.109-0.108,0.187-0.108,0.306c0,0.264,0.554,0.462,0.835,0.677
			c0.144,0.11,0.165,0.174,0.335,0.174c0.134,0,0.357-0.004,0.899-0.074c0.443-0.057,0.605-0.017,0.849-0.017
			c0.173,0,0.269,0.121,0.457,0.121c0.293,0,0.543-0.146,0.833-0.184c0.349-0.046,0.751-0.445,1.139-0.445
			c0.196,0,0.298,0.021,0.459,0.022c0.18,0.002,0.542-0.366,0.716-0.366c0.058,0,0.107,0.012,0.161,0.012
			c0.124,0,0.162-0.088,0.201-0.178c0.039-0.089,0.078-0.179,0.204-0.179c0.047,0,0.102,0.012,0.159,0.011
			c0.123-0.002,0.171-0.116,0.294-0.204c0.055-0.04,0.17-0.057,0.213-0.094c0.142-0.125,0.272-0.435,0.449-0.579
			c0.175-0.142,0.31-0.167,0.496-0.258c0.202-0.099,0.299-0.322,0.475-0.455c0.147-0.111,0.372-0.211,0.436-0.356
			c0.046-0.107,0.102-0.13,0.16-0.148c0.059-0.018,0.119-0.03,0.171-0.119c0.1-0.172,0.029-0.256,0.133-0.434
			c0.119-0.205,0.337-0.349,0.5-0.521c0.341-0.358,0.525-0.442,0.525-0.981c0-0.078-0.009-0.195-0.009-0.311
			c0-0.13,0.006-0.229,0.058-0.3c0.085-0.114,0.149-0.083,0.275-0.181c0.155-0.121,0.163-0.383,0.163-0.581
			c0-0.26-0.131-0.524-0.387-0.623c-0.122-0.046-0.203-0.062-0.375-0.062c-0.24,0-0.701,0.155-0.968,0.205
			c-0.251,0.047-0.512,0.038-0.766,0.074c-0.318,0.045-0.866,0.207-1.171,0.207c-0.17,0-0.343-0.032-0.512-0.032
			c-0.24,0-0.351,0.068-0.457,0.068c-0.073,0-0.144-0.032-0.253-0.141c-0.14-0.142-0.229-0.332-0.285-0.526
			c-0.089-0.303-0.098-0.61-0.098-0.721c0-0.093,0.048-0.419,0.048-0.508c0-0.297-0.255-0.329-0.255-0.537
			c0-0.114,0.056-0.172,0.084-0.268c0.046-0.155,0.044-0.327,0.161-0.44c0.159-0.153,0.618-0.15,0.818-0.226
			c0.385-0.148,0.713-0.247,1.045-0.356c0.389-0.127,0.784-0.264,1.281-0.501c0.132-0.062,0.24-0.057,0.35-0.068
			c0.071-0.008,0.143-0.022,0.223-0.066c0.175-0.096,0.303-0.07,0.483-0.178c0.178-0.108,0.225-0.552,0.406-0.552
			c0.086,0,0.13,0.053,0.274,0.055c0.177,0.003,0.806-0.21,0.806-0.433c0-0.091-0.071-0.123-0.132-0.123
			c-0.15,0-0.325,0.22-0.466,0.22c-0.034,0-0.068-0.013-0.068-0.065c0-0.129,0.328-0.377,0.408-0.429
			c0.204-0.136,0.415-0.165,0.63-0.263c0.064-0.029,0.198-0.149,0.322-0.149c0.086,0,0.111,0.025,0.212,0.025
			c0.103,0,0.16-0.081,0.16-0.183c0-0.162,0.012-0.257,0.121-0.376c0.286-0.313,1.323-0.602,1.551-0.899
			c0.182-0.236,0.331-0.649,0.663-0.817c0.135-0.068,0.172-0.063,0.268-0.114c0.126-0.067,0.248-0.318,0.312-0.521
			c0.032-0.102,0.056-0.271,0.056-0.366c0-0.481-0.68-0.654-1.112-0.654c-0.979,0-2.208,0.465-3.143,0.705
			c-0.383,0.098-0.694,0.143-1.049,0.311c-0.507,0.241-0.948,0.878-1.425,0.853c-0.162-0.008-0.181-0.13-0.286-0.135
			c-0.038-0.002-0.062,0.03-0.065,0.067c-0.005,0.064,0.053,0.168,0.051,0.255c-0.001,0.084-0.088,0.126-0.19,0.162
			c-0.093,0.032-0.197,0.059-0.256,0.105c-0.164,0.126-0.262,0.317-0.436,0.434c-0.507,0.339-1.368,0.815-1.869,0.788
			c-0.255-0.013-0.5-0.096-0.723-0.259c-0.203-0.148-0.37-0.339-0.537-0.526c-0.134-0.147-0.349-0.544-0.334-0.835
			c0.02-0.382,0.268-0.742,0.518-0.992c0.833-0.833,1.151-0.988,2.125-1.654c0.969-0.664,2.344-1.296,3.437-1.727
			c1.007-0.459,2.362-0.693,3.416-0.693c1.269,0,1.909,0.315,2.745,0.828c0.857,0.526,1.388,1.373,1.718,2.335
			c0.086,0.255,0.215,0.614,0.215,0.859c0,0.426-0.016,0.67-0.07,0.986c-0.061,0.358-0.103,0.847-0.461,1.406
			c-0.178,0.277-0.19,0.569-0.302,0.836c-0.063,0.148-0.149,0.294-0.294,0.435c-0.159,0.156-0.315,0.244-0.522,0.471
			c-0.218,0.239-0.528,0.313-0.767,0.541c-0.704,0.671-1.143,0.854-2.118,1.486c-0.14,0.091-0.612,0.234-0.857,0.401
			c-0.162,0.11-0.284,0.197-0.284,0.32c0,0.099,0.031,0.138,0.117,0.238c0.123,0.144,0.321,0.343,0.399,0.424
			c0.215,0.223,0.407,0.468,0.558,0.738c0.346,0.618,0.499,1.754,0.499,2.411c0,0.644-0.202,1.255-0.586,1.916
			c-0.121,0.208-0.176,0.431-0.287,0.642c-0.119,0.229-0.246,0.436-0.355,0.673c-0.208,0.452-0.634,0.705-0.954,1.077
			c-0.326,0.378-0.525,0.922-0.841,1.229c-0.332,0.323-0.576,0.55-0.95,0.821c-0.424,0.308-0.8,0.545-1.245,0.822
			c-0.416,0.258-0.779,0.584-1.257,0.788c-0.494,0.21-1.11,0.236-1.553,0.53c-0.394,0.262-0.711,0.224-1.254,0.386
			c-0.588,0.177-1.148,0.225-1.775,0.225C51.926,60.215,51.542,60.147,51.16,60.147"/>
		<path clip-path="url(#SVGID_4_)" fill="#FFFFFF" d="M71.133,60.743c-1.038,0.073-2.026-0.155-2.91-0.633
			c-0.861-0.463-1.592-1.019-2.056-1.919c-0.243-0.473-0.375-1.005-0.483-1.53c-0.052-0.247-0.062-0.445-0.159-0.648
			c-0.074-0.158-0.092-0.295-0.085-0.499c0.027-0.769,0.192-1.559,0.354-2.308c0.171-0.797,0.386-1.825,0.712-2.572
			c0.15-0.346,0.359-0.667,0.593-0.965c0.137-0.175,0.261-0.31,0.358-0.513c0.099-0.207,0.154-0.405,0.276-0.633
			c0.096-0.178,0.249-0.332,0.38-0.485c0.127-0.148,0.164-0.184,0.209-0.377c0.047-0.2,0.093-0.449,0.214-0.669
			c0.216-0.396,0.577-0.462,0.586-0.714c0.005-0.154-0.085-0.154-0.077-0.371c0.009-0.265,0.542-0.661,0.736-0.927
			c0.254-0.35,0.533-0.712,0.869-0.979c0.236-0.186,0.446-0.591,0.667-0.772c0.11-0.089,0.211-0.142,0.302-0.185
			c0.163-0.079,0.292-0.127,0.372-0.306c0.112-0.25,0.125-0.516,0.283-0.742c0.362-0.519,0.991-0.938,1.428-1.349
			c0.314-0.294,0.635-0.574,0.937-0.881c0.314-0.317,0.59-0.677,0.93-0.957c0.31-0.255,0.553-0.41,0.913-0.601
			c0.183-0.097,0.46-0.214,0.635-0.33c0.203-0.133,0.502-0.336,0.725-0.443c0.489-0.233,0.89-0.326,1.395-0.518
			c0.421-0.161,0.761-0.229,1.163-0.223c0.1,0.001,0.204,0.008,0.315,0.017c0.232,0.023,0.445,0.079,0.671,0.123
			c0.237,0.045,0.497,0.002,0.729,0.059c0.225,0.055,0.309,0.202,0.472,0.353c0.186,0.172,0.4,0.308,0.603,0.461
			c0.332,0.25,0.471,0.553,0.72,0.876c0.313,0.405,0.499,0.822,0.599,1.336c0.08,0.41,0.1,0.852,0.085,1.299
			c-0.02,0.555-0.094,1.117-0.177,1.633c-0.073,0.459-0.264,0.911-0.365,1.361c-0.108,0.48-0.127,0.955-0.263,1.432
			c-0.136,0.479-0.256,0.913-0.476,1.363c-0.199,0.41-0.353,0.806-0.534,1.221c-0.215,0.494-0.474,0.977-0.712,1.461
			c-0.086,0.176-0.159,0.379-0.289,0.53c-0.147,0.171-0.346,0.264-0.47,0.462c-0.214,0.337-0.369,0.801-0.534,1.17
			c-0.08,0.178-0.12,0.368-0.236,0.532c-0.148,0.211-0.332,0.379-0.458,0.61c-0.22,0.406-0.351,0.819-0.624,1.201
			c-0.342,0.48-0.731,0.923-1.173,1.312c-0.379,0.334-0.716,0.714-1.086,1.059c-0.379,0.353-0.564,0.77-0.895,1.152
			c-0.161,0.186-0.348,0.254-0.542,0.393c-0.182,0.13-0.286,0.33-0.437,0.492c-0.152,0.163-0.339,0.256-0.506,0.397
			c-0.197,0.168-0.356,0.346-0.576,0.487c-0.471,0.305-0.903,0.645-1.396,0.877C72.305,60.621,71.711,60.702,71.133,60.743
			L71.133,60.743z M69.936,57.792c0.359,0,0.764-0.208,1.088-0.354c0.192-0.086,0.371-0.233,0.558-0.292
			c0.269-0.084,0.592-0.081,0.612-0.445c0.005-0.097-0.027-0.189-0.021-0.298c0.013-0.262,0.162-0.359,0.39-0.439
			c0.11-0.039,0.339-0.122,0.426-0.202c0.122-0.113,0.069-0.283,0.214-0.387c0.115-0.08,0.192-0.032,0.298-0.032
			c0.275,0,0.662-0.514,0.894-0.814c0.229-0.297,0.433-0.689,0.727-0.933c0.253-0.208,0.425-0.458,0.621-0.723
			c0.203-0.271,0.441-0.488,0.621-0.781c0.206-0.334,0.466-0.563,0.689-0.877c0.209-0.296,0.397-0.689,0.572-1.056
			c0.214-0.452,0.409-0.861,0.596-0.997c0.08-0.058,0.262-0.161,0.268-0.277c0.008-0.151-0.055-0.284-0.049-0.397
			c0.019-0.359,0.174-0.483,0.368-0.722c0.162-0.198,0.224-0.389,0.34-0.611c0.184-0.35,0.443-0.67,0.589-1.027
			c0.059-0.145,0.051-0.306,0.122-0.439c0.071-0.131,0.173-0.218,0.223-0.419c0.019-0.076,0.014-0.183,0.04-0.258
			c0.036-0.105,0.124-0.218,0.151-0.321c0.023-0.085,0.01-0.158,0.022-0.224c0.043-0.226,0.408-0.422,0.504-0.65
			c0.075-0.18,0.057-0.375,0.133-0.566c0.062-0.154,0.089-0.318,0.143-0.477c0.059-0.173,0.178-0.282,0.224-0.462
			c0.114-0.442,0.159-0.922,0.183-1.372c0.059-1.133-0.006-1.681-0.455-1.681c-0.434,0-1.057,0.363-1.321,0.53
			c-0.34,0.214-0.698,0.466-1.022,0.706c-0.333,0.246-0.554,0.577-0.856,0.853c-0.3,0.275-0.621,0.506-0.909,0.799
			c-0.604,0.615-1.27,1.161-1.784,1.857c-0.219,0.297-0.501,0.5-0.721,0.788c-0.27,0.355-0.47,0.765-0.712,1.137
			c-0.5,0.769-0.928,1.594-1.477,2.327c-0.589,0.787-1.053,1.684-1.533,2.536c-0.224,0.397-0.476,0.794-0.656,1.211
			c-0.17,0.392-0.275,0.79-0.459,1.18c-0.196,0.412-0.284,0.801-0.405,1.231c-0.129,0.462-0.277,0.875-0.302,1.356
			c-0.019,0.338,0.097,0.846,0.26,1.269C69.292,57.458,69.5,57.792,69.936,57.792z"/>
		<path clip-path="url(#SVGID_4_)" fill="#27263B" d="M32.697,21.062h1.89c0.492,0,0.913,0.045,1.265,0.136
			c0.351,0.091,0.67,0.262,0.957,0.513c0.745,0.638,1.118,1.608,1.118,2.91c0,0.43-0.038,0.822-0.112,1.177
			c-0.075,0.354-0.191,0.675-0.347,0.959c-0.156,0.285-0.356,0.54-0.601,0.764c-0.191,0.173-0.401,0.311-0.629,0.416
			c-0.229,0.104-0.473,0.177-0.735,0.219c-0.263,0.042-0.558,0.064-0.887,0.064h-1.889c-0.264,0-0.463-0.04-0.596-0.119
			c-0.133-0.08-0.221-0.193-0.261-0.338c-0.041-0.145-0.061-0.332-0.061-0.564V21.95c0-0.312,0.07-0.539,0.21-0.678
			C32.159,21.132,32.385,21.062,32.697,21.062 M33.259,22.209v4.858h1.099c0.24,0,0.429-0.006,0.566-0.019
			c0.137-0.013,0.278-0.046,0.425-0.098c0.146-0.052,0.273-0.125,0.381-0.22c0.485-0.41,0.727-1.116,0.727-2.119
			c0-0.706-0.106-1.235-0.32-1.587c-0.213-0.351-0.476-0.575-0.788-0.671c-0.313-0.096-0.69-0.144-1.133-0.144H33.259z"/>
		<path clip-path="url(#SVGID_4_)" fill="#27263B" d="M43.401,27.409l-0.342-0.898h-2.91l-0.342,0.918
			c-0.133,0.358-0.247,0.599-0.341,0.724c-0.095,0.126-0.249,0.189-0.464,0.189c-0.182,0-0.344-0.066-0.484-0.2
			c-0.14-0.134-0.21-0.285-0.21-0.454c0-0.098,0.016-0.199,0.049-0.303c0.033-0.105,0.087-0.249,0.161-0.435l1.831-4.648
			c0.053-0.134,0.115-0.294,0.188-0.481c0.074-0.187,0.152-0.342,0.235-0.466s0.192-0.224,0.327-0.301
			c0.135-0.076,0.302-0.114,0.5-0.114c0.202,0,0.37,0.038,0.506,0.114c0.135,0.077,0.244,0.176,0.327,0.296
			c0.083,0.12,0.153,0.25,0.21,0.387c0.057,0.139,0.129,0.324,0.217,0.555l1.87,4.619c0.147,0.352,0.22,0.608,0.22,0.767
			c0,0.166-0.069,0.318-0.208,0.456c-0.138,0.139-0.305,0.208-0.5,0.208c-0.114,0-0.211-0.021-0.293-0.062
			c-0.082-0.04-0.15-0.095-0.205-0.166c-0.055-0.069-0.115-0.176-0.178-0.322C43.501,27.648,43.447,27.52,43.401,27.409
			 M40.53,25.422h2.139l-1.079-2.954L40.53,25.422z"/>
		<path clip-path="url(#SVGID_4_)" fill="#27263B" d="M47.435,21.818v5.21h2.939c0.235,0,0.415,0.057,0.54,0.171
			c0.125,0.114,0.188,0.257,0.188,0.43c0,0.175-0.062,0.318-0.186,0.426c-0.123,0.11-0.304,0.164-0.542,0.164h-3.501
			c-0.315,0-0.542-0.07-0.681-0.21c-0.138-0.139-0.207-0.366-0.207-0.678v-5.513c0-0.293,0.066-0.513,0.198-0.659
			c0.131-0.147,0.305-0.22,0.52-0.22c0.218,0,0.394,0.072,0.529,0.218C47.367,21.301,47.435,21.522,47.435,21.818"/>
		<path clip-path="url(#SVGID_4_)" fill="#27263B" d="M53.475,21.818v5.21h2.939c0.235,0,0.415,0.057,0.54,0.171
			c0.125,0.114,0.188,0.257,0.188,0.43c0,0.175-0.062,0.318-0.186,0.426c-0.123,0.11-0.304,0.164-0.542,0.164h-3.501
			c-0.315,0-0.542-0.07-0.681-0.21c-0.138-0.139-0.207-0.366-0.207-0.678v-5.513c0-0.293,0.066-0.513,0.198-0.659
			c0.131-0.147,0.305-0.22,0.52-0.22c0.218,0,0.394,0.072,0.529,0.218C53.408,21.301,53.475,21.522,53.475,21.818"/>
		<path clip-path="url(#SVGID_4_)" fill="#27263B" d="M62.811,22.18h-3.267v1.758h3.008c0.221,0,0.387,0.05,0.496,0.149
			c0.109,0.099,0.163,0.23,0.163,0.393s-0.053,0.295-0.161,0.398c-0.107,0.102-0.273,0.154-0.498,0.154h-3.008v2.036h3.379
			c0.228,0,0.4,0.052,0.515,0.158c0.116,0.106,0.174,0.247,0.174,0.423c0,0.169-0.058,0.306-0.174,0.413
			c-0.115,0.105-0.287,0.158-0.515,0.158h-3.94c-0.316,0-0.543-0.07-0.681-0.21c-0.138-0.14-0.208-0.366-0.208-0.679v-5.38
			c0-0.208,0.031-0.379,0.093-0.51c0.062-0.133,0.159-0.229,0.291-0.289c0.131-0.06,0.3-0.09,0.505-0.09h3.828
			c0.231,0,0.403,0.051,0.515,0.154c0.112,0.102,0.169,0.236,0.169,0.402c0,0.169-0.057,0.305-0.169,0.409
			C63.213,22.127,63.042,22.18,62.811,22.18"/>
		<g opacity="0.8" clip-path="url(#SVGID_4_)">
			<g>
				<defs>
					<rect id="SVGID_7_" x="108.323" width="95" height="95"/>
				</defs>
				<clipPath id="SVGID_8_">
					<use xlink:href="#SVGID_7_"  overflow="visible"/>
				</clipPath>
				<path clip-path="url(#SVGID_8_)" fill="#FFFFFF" d="M155.823,95c26.233,0,47.5-21.266,47.5-47.5c0-26.234-21.267-47.5-47.5-47.5
					c-26.234,0-47.5,21.266-47.5,47.5C108.323,73.734,129.589,95,155.823,95"/>
			</g>
		</g>
		<path clip-path="url(#SVGID_4_)" fill="#FFFFFF" d="M173.823,3.54c-5.554-2.276-11.628-3.54-18-3.54
			c-26.234,0-47.5,21.267-47.5,47.5c0,26.234,21.266,47.5,47.5,47.5c6.372,0,12.446-1.264,18-3.54
			c-17.307-7.094-29.5-24.099-29.5-43.96S156.517,10.634,173.823,3.54"/>
		<path clip-path="url(#SVGID_4_)" fill="#27263B" d="M128.914,60.25c-0.27,0-0.586-0.126-0.865-0.233
			c-0.257-0.1-0.542-0.165-0.739-0.37c-0.24-0.248-0.433-0.65-0.526-0.975c-0.069-0.239-0.135-0.497-0.135-0.75
			c0-0.391,0.22-0.754,0.341-1.125c0.206-0.633,0.482-1.01,0.737-1.621c0.111-0.3,0.26-0.521,0.446-0.777
			c0.189-0.241,0.383-0.748,0.557-0.997c0.065-0.091,0.146-0.213,0.144-0.327c-0.002-0.116-0.104-0.22-0.237-0.22
			c-0.076,0-0.154,0.043-0.222,0.062c-0.197,0.055-0.342,0.068-0.552,0.074c-0.355,0.011-1.012,0.091-1.365,0.132
			c-0.241,0.028-0.476,0.018-0.709,0.018c-0.134,0-0.268,0.004-0.401,0.021c-0.41,0.053-1.776,0.217-2.008,0.217
			c-0.264,0-0.465-0.043-0.596-0.043c-0.396,0-0.601,0.172-0.811,0.172c-0.104,0-0.211-0.042-0.343-0.171
			c-0.204-0.196-0.239-0.374-0.288-0.646c-0.063-0.357-0.047-0.55-0.098-0.915c-0.049-0.358-0.143-0.772-0.135-1.224
			c-0.003-0.23,0.034-0.458,0.153-0.689c0.294-0.572,0.762-1.031,1.24-1.453c0.365-0.323,0.646-0.571,0.885-0.905
			c0.167-0.234,0.354-0.448,0.599-0.6c0.174-0.108,0.323-0.233,0.485-0.34c0.285-0.188,0.408-0.397,0.607-0.668
			c0.132-0.179,0.35-0.285,0.517-0.432c0.177-0.155,0.416-0.482,0.568-0.482c0.047,0,0.073,0.025,0.112,0.025
			c0.061,0,0.125-0.106,0.151-0.146c0.074-0.111,0.188-0.219,0.309-0.318c0.266-0.215,0.656-0.546,0.908-0.785
			c0.106-0.098,0.208-0.222,0.328-0.307c0.097-0.069,0.245-0.077,0.327-0.152c0.07-0.063,0.07-0.172,0.099-0.223
			c0.023-0.041,0.071-0.061,0.094-0.067c0.258-0.067,0.403-0.123,0.552-0.274c0.237-0.243,0.39-0.563,0.503-0.563
			c0.048,0,0.019,0.06,0.057,0.06c0.067,0,0.123-0.076,0.123-0.111c0-0.054-0.087-0.074-0.087-0.12c0-0.044,0.056-0.07,0.122-0.086
			c0.079-0.02,0.173-0.027,0.209-0.042c0.241-0.111,0.365-0.39,0.57-0.554c0.112-0.09,0.233-0.146,0.354-0.203
			c0.114-0.056,0.227-0.114,0.327-0.205c0.08-0.073,0.151-0.113,0.326-0.154c0.067-0.015,0.094-0.038,0.094-0.059
			c0-0.048-0.079-0.107-0.079-0.164c0-0.035,0.03-0.054,0.112-0.083c0.162-0.059,0.243-0.111,0.336-0.205
			c0.106-0.108,0.155-0.247,0.274-0.352c0.14-0.123,0.446-0.384,0.803-0.619c0.206-0.137,0.418-0.32,0.597-0.48
			c0.086-0.076,0.207-0.097,0.295-0.159c0.107-0.074,0.189-0.234,0.292-0.306c0.124-0.087,0.203-0.098,0.333-0.169
			c0.158-0.085,0.271-0.237,0.424-0.321c0.207-0.113,0.566-0.386,0.798-0.488c0.312-0.137,0.604-0.266,0.883-0.464
			c0.25-0.178,0.529-0.238,0.778-0.406c0.237-0.159,0.441-0.265,0.702-0.265c0.388,0,0.621,0.236,0.823,0.543
			c0.214,0.326,0.454,0.648,0.641,0.991c0.129,0.24,0.201,0.478,0.382,0.689c0.2,0.234,0.458,0.441,0.639,0.689
			c0.094,0.131,0.133,0.286,0.133,0.451c0,0.464-0.301,1.014-0.479,1.36c-0.132,0.256-0.289,0.486-0.456,0.72
			c-0.188,0.264-0.291,0.58-0.492,0.834c-0.196,0.248-0.289,0.476-0.445,0.747c-0.152,0.262-0.364,0.483-0.491,0.764
			c-0.561,1.24-1.363,2.386-2.137,3.508c-0.206,0.298-0.411,0.596-0.6,0.905c-0.063,0.103-0.217,0.297-0.217,0.429
			c0,0.109,0.117,0.109,0.236,0.196c0.191,0.144,0.278,0.47,0.421,0.668c0.179,0.246,0.425,0.46,0.544,0.744
			c0.099,0.234,0.149,0.556,0.149,0.829c0,0.255-0.176,0.522-0.465,0.597c-0.103,0.026-0.198,0.025-0.29,0.025
			c-0.227,0-0.441-0.045-0.681-0.045c-0.27,0-0.563,0.083-0.829,0.125c-0.33,0.054-0.623,0.076-0.926,0.225
			c-0.311,0.152-0.426,0.362-0.591,0.659c-0.298,0.541-0.67,1.027-0.953,1.577c-0.27,0.527-0.574,1.07-0.841,1.597
			c-0.312,0.618-0.646,1.202-0.978,1.812c-0.164,0.301-0.33,0.591-0.474,0.892c-0.145,0.309-0.266,0.626-0.336,0.978
			C129.401,60.123,129.183,60.25,128.914,60.25L128.914,60.25z M125.456,50c0.485,0,0.966-0.077,1.751-0.146
			c0.639-0.055,1.267-0.203,1.897-0.316c0.301-0.054,0.597-0.119,0.9-0.135c0.302-0.017,0.69-0.012,0.978-0.118
			c0.408-0.147,0.493-0.797,0.682-1.14c0.13-0.238,0.313-0.432,0.472-0.649c0.049-0.07,0.096-0.175,0.153-0.236
			c0.105-0.112,0.277-0.163,0.378-0.277c0.107-0.125,0.209-0.308,0.28-0.466c0.053-0.117,0.102-0.224,0.182-0.224
			c0.087,0,0.05,0.089,0.185,0.089c0.192,0,0.354-0.193,0.354-0.316c0-0.169-0.077-0.246-0.077-0.409
			c0-0.463,0.49-0.888,0.798-1.232c0.419-0.467,0.854-0.957,1.176-1.496c0.157-0.262,0.284-0.581,0.451-0.857
			c0.112-0.186,0.243-0.352,0.412-0.466c0.077-0.051,0.124-0.102,0.157-0.153c0.07-0.111,0.081-0.227,0.186-0.376
			c0.178-0.249,0.406-0.53,0.406-0.694c0-0.029-0.006-0.058-0.055-0.058c-0.135,0-0.479,0.265-0.536,0.3
			c-0.25,0.142-0.452,0.261-0.669,0.454c-0.494,0.439-0.98,0.888-1.47,1.333c-0.865,0.785-1.878,1.432-2.802,2.089
			c-0.464,0.332-0.854,0.812-1.336,1.123c-0.25,0.161-0.333,0.24-0.512,0.478c-0.201,0.268-0.488,0.475-0.75,0.677
			c-0.45,0.346-0.877,0.574-1.245,1.016c-0.165,0.2-0.315,0.361-0.55,0.448c-0.524,0.195-0.659,0.476-0.834,0.708
			c-0.141,0.186-0.292,0.328-0.489,0.453c-0.136,0.086-0.646,0.297-0.646,0.507C125.284,49.981,125.36,50,125.456,50L125.456,50z"/>
		<path clip-path="url(#SVGID_4_)" fill="#27263B" d="M139.412,60.109c-0.14-0.086-0.374-0.259-0.462-0.368
			c-0.122-0.149-0.256-0.393-0.289-0.556c-0.03-0.153,0-0.342,0.034-0.496c0.038-0.178-0.02-0.411-0.02-0.595
			c0-0.381,0.465-0.855,0.59-0.962c0.293-0.251,0.878-0.469,1.155-0.469c0.43,0,0.887,0.085,1.263,0.268
			c0.175,0.084,0.351,0.263,0.417,0.43c0.051,0.126,0.137,0.766,0.137,0.891c0,0.137-0.02,0.288-0.077,0.4
			c-0.062,0.132-0.18,0.353-0.271,0.474c-0.232,0.309-0.298,0.501-0.585,0.729c-0.383,0.309-0.949,0.373-1.348,0.373
			C139.756,60.229,139.555,60.196,139.412,60.109 M142.889,51.369c-0.142-0.086-0.373-0.26-0.462-0.367
			c-0.121-0.151-0.256-0.395-0.289-0.557c-0.03-0.151-0.13-0.488-0.13-0.646c0-0.307,0.147-0.688,0.21-0.805
			c0.178-0.338,0.497-0.594,0.622-0.701c0.293-0.251,0.943-0.371,1.221-0.371c0.431,0,0.526,0.085,0.902,0.268
			c0.175,0.085,0.351,0.263,0.418,0.43c0.05,0.126,0.332,0.767,0.332,0.891c0,0.136-0.019,0.287-0.076,0.401
			c-0.062,0.132-0.181,0.352-0.271,0.473c-0.233,0.31-0.298,0.5-0.585,0.729c-0.384,0.308-0.852,0.472-1.249,0.472
			C143.329,51.587,143.031,51.458,142.889,51.369"/>
		<path clip-path="url(#SVGID_4_)" fill="#27263B" d="M150.24,60.111c-0.861-0.463-1.592-1.019-2.057-1.919
			c-0.243-0.473-0.376-1.005-0.483-1.53c-0.051-0.247-0.062-0.445-0.158-0.648c-0.074-0.158-0.093-0.295-0.085-0.499
			c0.026-0.769,0.192-1.559,0.353-2.308c0.173-0.797,0.388-1.825,0.714-2.572c0.149-0.346,0.358-0.667,0.592-0.965
			c0.138-0.175,0.262-0.31,0.357-0.513c0.1-0.207,0.155-0.406,0.277-0.634c0.096-0.178,0.249-0.332,0.38-0.485
			c0.127-0.148,0.164-0.184,0.209-0.377c0.047-0.2,0.092-0.449,0.214-0.669c0.216-0.396,0.577-0.462,0.586-0.714
			c0.004-0.154-0.085-0.154-0.078-0.371c0.011-0.265,0.543-0.661,0.737-0.927c0.254-0.35,0.533-0.712,0.869-0.979
			c0.235-0.186,0.446-0.591,0.667-0.772c0.109-0.089,0.211-0.142,0.302-0.185c0.163-0.079,0.292-0.127,0.372-0.306
			c0.112-0.25,0.125-0.516,0.283-0.742c0.361-0.519,0.99-0.938,1.428-1.349c0.313-0.294,0.635-0.574,0.938-0.881
			c0.313-0.317,0.59-0.677,0.93-0.957c0.31-0.255,0.553-0.41,0.913-0.601c0.183-0.097,0.46-0.214,0.635-0.33
			c0.203-0.133,0.502-0.336,0.726-0.443c0.488-0.233,0.89-0.326,1.395-0.518c0.421-0.161,0.761-0.229,1.163-0.223
			c0.1,0.001,0.204,0.008,0.314,0.017c0.232,0.023,0.445,0.079,0.672,0.123c0.236,0.045,0.497,0.002,0.729,0.059
			c0.225,0.055,0.309,0.202,0.471,0.353c0.188,0.172,0.401,0.308,0.604,0.461c0.332,0.25,0.471,0.553,0.72,0.876
			c0.313,0.405,0.499,0.822,0.6,1.336c0.08,0.41,0.1,0.852,0.084,1.299c-0.02,0.555-0.095,1.117-0.177,1.633
			c-0.072,0.459-0.264,0.911-0.364,1.361c-0.108,0.48-0.127,0.956-0.264,1.432c-0.136,0.479-0.256,0.913-0.476,1.363
			c-0.199,0.41-0.354,0.806-0.533,1.221c-0.216,0.494-0.476,0.978-0.713,1.462c-0.086,0.176-0.159,0.379-0.289,0.53
			c-0.147,0.171-0.346,0.264-0.471,0.462c-0.213,0.337-0.368,0.801-0.533,1.17c-0.08,0.178-0.12,0.368-0.236,0.532
			c-0.148,0.211-0.332,0.379-0.458,0.61c-0.22,0.406-0.351,0.819-0.624,1.201c-0.342,0.48-0.73,0.923-1.173,1.312
			c-0.379,0.334-0.716,0.714-1.086,1.059c-0.379,0.353-0.564,0.771-0.895,1.152c-0.162,0.186-0.349,0.254-0.543,0.393
			c-0.182,0.13-0.286,0.33-0.437,0.492c-0.152,0.163-0.339,0.256-0.506,0.397c-0.197,0.168-0.356,0.346-0.576,0.487
			c-0.471,0.305-0.904,0.645-1.396,0.877c-0.54,0.256-1.136,0.337-1.713,0.378C152.111,60.817,151.124,60.589,150.24,60.111
			 M151.952,57.793c0.357,0,0.764-0.208,1.088-0.354c0.192-0.086,0.371-0.233,0.558-0.292c0.27-0.084,0.592-0.081,0.612-0.445
			c0.005-0.097-0.028-0.189-0.022-0.298c0.015-0.262,0.162-0.359,0.392-0.439c0.108-0.039,0.339-0.122,0.426-0.202
			c0.122-0.113,0.068-0.283,0.214-0.387c0.115-0.079,0.192-0.032,0.297-0.032c0.276,0,0.663-0.514,0.896-0.814
			c0.228-0.297,0.433-0.689,0.727-0.933c0.253-0.208,0.424-0.458,0.621-0.723c0.203-0.271,0.44-0.488,0.621-0.781
			c0.206-0.334,0.466-0.563,0.688-0.877c0.209-0.296,0.397-0.689,0.571-1.056c0.216-0.452,0.41-0.861,0.597-0.997
			c0.081-0.058,0.263-0.161,0.269-0.277c0.008-0.152-0.055-0.285-0.049-0.398c0.018-0.359,0.174-0.483,0.368-0.722
			c0.161-0.198,0.224-0.389,0.34-0.611c0.184-0.35,0.442-0.67,0.589-1.027c0.059-0.145,0.051-0.306,0.122-0.439
			c0.07-0.131,0.173-0.218,0.223-0.419c0.02-0.076,0.015-0.183,0.04-0.258c0.036-0.105,0.124-0.218,0.151-0.321
			c0.022-0.085,0.01-0.158,0.021-0.224c0.043-0.226,0.408-0.422,0.505-0.65c0.074-0.18,0.057-0.375,0.133-0.566
			c0.062-0.154,0.089-0.318,0.143-0.477c0.059-0.173,0.177-0.282,0.224-0.462c0.114-0.442,0.159-0.922,0.184-1.372
			c0.059-1.133-0.006-1.681-0.455-1.681c-0.434,0-1.058,0.363-1.321,0.53c-0.34,0.214-0.697,0.466-1.021,0.706
			c-0.334,0.246-0.554,0.577-0.856,0.853c-0.3,0.275-0.621,0.506-0.909,0.799c-0.604,0.615-1.27,1.161-1.784,1.857
			c-0.22,0.297-0.5,0.5-0.721,0.789c-0.27,0.354-0.47,0.764-0.712,1.136c-0.5,0.769-0.928,1.594-1.477,2.327
			c-0.589,0.788-1.055,1.685-1.533,2.537c-0.224,0.397-0.477,0.795-0.656,1.212c-0.17,0.391-0.274,0.789-0.459,1.179
			c-0.197,0.412-0.285,0.801-0.405,1.231c-0.13,0.462-0.276,0.875-0.302,1.356c-0.019,0.338,0.097,0.846,0.26,1.269
			C151.308,57.459,151.515,57.793,151.952,57.793L151.952,57.793z"/>
		<path clip-path="url(#SVGID_4_)" fill="#27263B" d="M170.736,60.745c-1.037,0.073-2.024-0.157-2.909-0.633
			c-0.86-0.464-1.593-1.021-2.056-1.919c-0.244-0.475-0.375-1.007-0.483-1.53c-0.053-0.247-0.062-0.447-0.158-0.65
			c-0.075-0.158-0.093-0.295-0.086-0.499c0.026-0.767,0.191-1.557,0.354-2.306c0.17-0.797,0.386-1.827,0.711-2.574
			c0.151-0.344,0.359-0.667,0.594-0.964c0.138-0.174,0.261-0.309,0.358-0.512c0.099-0.208,0.153-0.406,0.276-0.635
			c0.096-0.177,0.248-0.332,0.379-0.485c0.127-0.147,0.164-0.183,0.21-0.377c0.047-0.199,0.093-0.448,0.213-0.669
			c0.217-0.395,0.577-0.462,0.586-0.714c0.006-0.154-0.084-0.154-0.077-0.371c0.01-0.264,0.542-0.661,0.737-0.926
			c0.254-0.35,0.533-0.712,0.868-0.979c0.236-0.187,0.446-0.592,0.668-0.772c0.109-0.089,0.211-0.142,0.301-0.185
			c0.163-0.079,0.292-0.128,0.372-0.307c0.112-0.25,0.126-0.515,0.283-0.742c0.362-0.518,0.991-0.937,1.429-1.349
			c0.313-0.293,0.634-0.574,0.937-0.88c0.313-0.318,0.59-0.677,0.931-0.957c0.309-0.255,0.553-0.411,0.913-0.602
			c0.183-0.097,0.459-0.214,0.634-0.329c0.204-0.134,0.502-0.337,0.725-0.443c0.49-0.234,0.892-0.327,1.396-0.519
			c0.42-0.16,0.761-0.228,1.163-0.223c0.1,0.001,0.204,0.008,0.313,0.018c0.232,0.022,0.446,0.078,0.672,0.122
			c0.237,0.046,0.496,0.003,0.729,0.06c0.224,0.054,0.308,0.202,0.471,0.352c0.188,0.173,0.401,0.309,0.604,0.461
			c0.333,0.25,0.472,0.554,0.72,0.876c0.313,0.405,0.499,0.822,0.6,1.337c0.079,0.409,0.1,0.852,0.085,1.299
			c-0.02,0.554-0.094,1.117-0.177,1.633c-0.073,0.459-0.265,0.911-0.365,1.361c-0.107,0.479-0.128,0.955-0.263,1.432
			c-0.136,0.478-0.256,0.913-0.476,1.363c-0.199,0.409-0.354,0.806-0.534,1.221c-0.216,0.494-0.475,0.978-0.713,1.461
			c-0.086,0.177-0.159,0.38-0.288,0.529c-0.148,0.171-0.347,0.266-0.471,0.462c-0.214,0.337-0.369,0.803-0.533,1.17
			c-0.081,0.18-0.121,0.368-0.236,0.532c-0.148,0.211-0.332,0.379-0.458,0.612c-0.22,0.406-0.351,0.817-0.624,1.201
			c-0.342,0.479-0.731,0.923-1.174,1.311c-0.379,0.334-0.715,0.714-1.085,1.061c-0.379,0.352-0.565,0.769-0.896,1.15
			c-0.161,0.188-0.348,0.254-0.542,0.395c-0.183,0.13-0.286,0.33-0.437,0.49c-0.153,0.163-0.339,0.258-0.506,0.398
			c-0.198,0.168-0.356,0.345-0.576,0.488c-0.472,0.304-0.904,0.643-1.396,0.877C171.909,60.623,171.314,60.704,170.736,60.745
			L170.736,60.745z M170.628,57.438c0.19-0.086,0.37-0.231,0.557-0.291c0.27-0.085,0.592-0.08,0.612-0.444
			c0.005-0.099-0.026-0.191-0.021-0.298c0.015-0.264,0.163-0.36,0.392-0.441c0.108-0.039,0.339-0.122,0.425-0.202
			c0.122-0.111,0.069-0.283,0.215-0.386c0.114-0.08,0.191-0.033,0.298-0.033c0.274,0,0.662-0.512,0.894-0.812
			c0.229-0.298,0.433-0.691,0.728-0.935c0.253-0.208,0.424-0.458,0.621-0.721c0.202-0.272,0.44-0.49,0.621-0.783
			c0.206-0.334,0.465-0.562,0.688-0.877c0.209-0.295,0.397-0.688,0.572-1.054c0.213-0.452,0.408-0.863,0.596-0.997
			c0.079-0.06,0.262-0.162,0.269-0.278c0.008-0.152-0.056-0.284-0.049-0.398c0.019-0.358,0.173-0.482,0.367-0.721
			c0.162-0.199,0.224-0.389,0.341-0.612c0.184-0.349,0.441-0.67,0.588-1.026c0.059-0.146,0.052-0.307,0.123-0.44
			c0.07-0.13,0.173-0.217,0.223-0.418c0.019-0.077,0.014-0.183,0.039-0.258c0.036-0.106,0.124-0.218,0.152-0.322
			c0.021-0.085,0.01-0.158,0.021-0.223c0.042-0.227,0.407-0.422,0.503-0.651c0.076-0.179,0.059-0.375,0.134-0.565
			c0.062-0.154,0.09-0.318,0.144-0.478c0.058-0.172,0.178-0.282,0.223-0.461c0.114-0.443,0.16-0.922,0.184-1.373
			c0.06-1.132-0.006-1.68-0.454-1.68c-0.436,0-1.058,0.362-1.322,0.529c-0.339,0.215-0.698,0.467-1.021,0.706
			c-0.333,0.246-0.555,0.577-0.855,0.854c-0.3,0.274-0.622,0.506-0.909,0.798c-0.604,0.616-1.271,1.162-1.784,1.858
			c-0.219,0.297-0.502,0.5-0.721,0.788c-0.271,0.354-0.471,0.765-0.713,1.137c-0.499,0.768-0.928,1.593-1.477,2.327
			c-0.589,0.787-1.054,1.686-1.532,2.536c-0.226,0.397-0.478,0.794-0.657,1.211c-0.169,0.391-0.274,0.79-0.459,1.179
			c-0.196,0.412-0.283,0.803-0.405,1.233c-0.128,0.461-0.275,0.875-0.301,1.354c-0.02,0.34,0.096,0.848,0.259,1.271
			c0.163,0.419,0.371,0.752,0.807,0.752C169.898,57.793,170.303,57.585,170.628,57.438"/>
		<path clip-path="url(#SVGID_4_)" fill="#27263B" d="M148.317,27.409l-0.342-0.898h-2.91l-0.342,0.918
			c-0.133,0.358-0.247,0.599-0.342,0.724c-0.094,0.126-0.249,0.189-0.464,0.189c-0.182,0-0.343-0.066-0.483-0.2
			c-0.14-0.134-0.21-0.285-0.21-0.454c0-0.098,0.017-0.199,0.049-0.303c0.033-0.105,0.087-0.249,0.161-0.435l1.831-4.648
			c0.053-0.134,0.115-0.294,0.188-0.481s0.151-0.342,0.234-0.466s0.191-0.224,0.327-0.301c0.135-0.076,0.302-0.114,0.5-0.114
			c0.201,0,0.369,0.038,0.506,0.114c0.135,0.077,0.244,0.176,0.327,0.296c0.083,0.12,0.152,0.25,0.21,0.387
			c0.057,0.139,0.129,0.324,0.217,0.555l1.87,4.619c0.146,0.352,0.22,0.608,0.22,0.767c0,0.166-0.069,0.318-0.207,0.456
			c-0.139,0.139-0.306,0.208-0.501,0.208c-0.113,0-0.211-0.021-0.293-0.062c-0.081-0.04-0.149-0.095-0.205-0.166
			c-0.055-0.069-0.114-0.176-0.178-0.322C148.418,27.648,148.363,27.52,148.317,27.409 M145.446,25.422h2.139l-1.079-2.954
			L145.446,25.422z"/>
		<path clip-path="url(#SVGID_4_)" fill="#27263B" d="M152.351,21.818v5.21h2.938c0.235,0,0.415,0.057,0.54,0.171
			c0.125,0.114,0.188,0.257,0.188,0.43c0,0.175-0.062,0.318-0.187,0.426c-0.123,0.11-0.303,0.164-0.542,0.164h-3.501
			c-0.314,0-0.542-0.07-0.68-0.21c-0.139-0.139-0.208-0.366-0.208-0.678v-5.513c0-0.293,0.066-0.513,0.198-0.659
			c0.132-0.147,0.305-0.22,0.52-0.22c0.219,0,0.395,0.072,0.53,0.218C152.283,21.301,152.351,21.522,152.351,21.818"/>
		<path clip-path="url(#SVGID_4_)" fill="#27263B" d="M158.391,21.818v5.21h2.938c0.235,0,0.415,0.057,0.54,0.171
			c0.125,0.114,0.188,0.257,0.188,0.43c0,0.175-0.062,0.318-0.187,0.426c-0.123,0.11-0.303,0.164-0.542,0.164h-3.501
			c-0.314,0-0.542-0.07-0.68-0.21c-0.139-0.139-0.208-0.366-0.208-0.678v-5.513c0-0.293,0.066-0.513,0.198-0.659
			c0.132-0.147,0.305-0.22,0.52-0.22c0.219,0,0.395,0.072,0.53,0.218C158.323,21.301,158.391,21.522,158.391,21.818"/>
		<path clip-path="url(#SVGID_4_)" fill="#27263B" d="M167.727,22.18h-3.268v1.758h3.009c0.222,0,0.387,0.05,0.496,0.149
			c0.108,0.099,0.162,0.23,0.162,0.393s-0.053,0.295-0.16,0.398c-0.107,0.102-0.273,0.154-0.498,0.154h-3.009v2.036h3.38
			c0.229,0,0.399,0.052,0.516,0.158c0.115,0.106,0.173,0.247,0.173,0.423c0,0.169-0.058,0.306-0.173,0.413
			c-0.116,0.105-0.287,0.158-0.516,0.158h-3.94c-0.316,0-0.543-0.07-0.681-0.21c-0.139-0.14-0.208-0.366-0.208-0.679v-5.38
			c0-0.208,0.03-0.379,0.093-0.51c0.062-0.133,0.159-0.229,0.291-0.289c0.132-0.06,0.3-0.09,0.505-0.09h3.828
			c0.23,0,0.402,0.051,0.516,0.154c0.112,0.102,0.168,0.236,0.168,0.402c0,0.169-0.056,0.305-0.168,0.409
			C168.129,22.127,167.957,22.18,167.727,22.18"/>
	</g>
</g>
</svg>
