<?xml version="1.0" encoding="utf-8"?>
<!-- Generator: Adobe Illustrator 16.0.0, SVG Export Plug-In . SVG Version: 6.00 Build 0)  -->
<!DOCTYPE svg PUBLIC "-//W3C//DTD SVG 1.1//EN" "http://www.w3.org/Graphics/SVG/1.1/DTD/svg11.dtd">
<svg version="1.1" id="Layer_1" xmlns="http://www.w3.org/2000/svg" xmlns:xlink="http://www.w3.org/1999/xlink" x="0px" y="0px"
	 width="8.984px" height="8.984px" viewBox="0 0 8.984 8.984" enable-background="new 0 0 8.984 8.984" xml:space="preserve">
<g>
	<defs>
		<rect id="SVGID_1_" width="8.984" height="8.984"/>
	</defs>
	<clipPath id="SVGID_2_">
		<use xlink:href="#SVGID_1_"  overflow="visible"/>
	</clipPath>
	<path clip-path="url(#SVGID_2_)" fill="#CCD52A" d="M8.984,4.492c0,2.481-2.012,4.492-4.492,4.492C2.011,8.984,0,6.973,0,4.492
		C0,2.011,2.011,0,4.492,0C6.973,0,8.984,2.011,8.984,4.492"/>
	<path clip-path="url(#SVGID_2_)" fill="#27263B" d="M5.093,4.492l1.899-1.9c0.166-0.166,0.166-0.435,0-0.6
		c-0.166-0.166-0.435-0.166-0.601,0l-1.899,1.9L2.591,1.991c-0.166-0.166-0.434-0.166-0.6,0s-0.166,0.435,0,0.601l1.9,1.9
		l-1.9,1.901c-0.166,0.165-0.166,0.434,0,0.6c0.165,0.166,0.434,0.166,0.6,0l1.901-1.901l1.9,1.9c0.165,0.166,0.434,0.167,0.6,0
		c0.166-0.165,0.166-0.434,0-0.6L5.093,4.492z"/>
</g>
</svg>
