<?xml version="1.0" encoding="utf-8"?>
<!-- Generator: Adobe Illustrator 16.0.0, SVG Export Plug-In . SVG Version: 6.00 Build 0)  -->
<!DOCTYPE svg PUBLIC "-//W3C//DTD SVG 1.1//EN" "http://www.w3.org/Graphics/SVG/1.1/DTD/svg11.dtd">
<svg version="1.1" id="Layer_1" xmlns="http://www.w3.org/2000/svg" xmlns:xlink="http://www.w3.org/1999/xlink" x="0px" y="0px"
	 width="87px" height="51.271px" viewBox="0 0 87 51.271" enable-background="new 0 0 87 51.271" xml:space="preserve">
<polygon fill="#27263B" points="0.042,38.598 0,38.855 6.316,38.933 6.381,38.521 "/>
<polygon fill="#27263B" points="44.011,38.921 49.394,38.854 49.497,38.599 44.072,38.531 "/>
<g>
	<defs>
		<rect id="SVGID_1_" width="87" height="51.271"/>
	</defs>
	<clipPath id="SVGID_2_">
		<use xlink:href="#SVGID_1_"  overflow="visible"/>
	</clipPath>
	<path clip-path="url(#SVGID_2_)" fill="#27263B" d="M17.635,1.126H15.53h-2.175l1.767,0.607c0.186,0.064,0.302,0.25,0.278,0.445
		L14.524,9.24l-0.407,4.082L9.613,1.126H7.711H5.564H3.431l1.726,0.593c0.186,0.064,0.302,0.25,0.278,0.445L3.265,19.62
		c-0.033,0.261-0.211,0.481-0.46,0.566L1.077,20.78h4.28h0.444c0.591,0,1.09-0.461,1.167-1.077l0.872-7.036l0.407-4.082
		l3.988,10.796c0.133,0.362-0.057,0.764-0.423,0.89L10.33,20.78h4.28h1.158c0.59,0,1.089-0.461,1.166-1.077l2.31-18.577H17.635z"/>
	<path clip-path="url(#SVGID_2_)" fill="#27263B" d="M40.733,3.574l0.299-2.448H30.498h-1.995h-2.285l1.874,0.644
		c0.186,0.064,0.301,0.249,0.277,0.444l-0.298,2.439h4.313l-1.87,14.982c-0.033,0.261-0.211,0.481-0.46,0.566l-1.683,0.579h4.281
		h0.568c0.591,0,1.09-0.461,1.167-1.076l1.878-15.051h3.301C40.158,4.653,40.658,4.191,40.733,3.574"/>
	<path clip-path="url(#SVGID_2_)" fill="#27263B" d="M45.784,1.126h-1.97h-2.31L43.4,1.778c0.186,0.064,0.302,0.249,0.277,0.445
		l-2.164,17.409c-0.033,0.261-0.211,0.481-0.46,0.566L39.36,20.78h4.281h8.123c0.591,0,1.091-0.462,1.166-1.079l0.3-2.449h-7.547
		l0.599-4.737h5.314c0.592,0,1.091-0.462,1.167-1.079l0.299-2.448h-6.35l0.552-4.334h6.512c0.592,0,1.091-0.463,1.167-1.08
		l0.299-2.448H45.784z"/>
	<path clip-path="url(#SVGID_2_)" fill="#27263B" d="M22.047,1.126h-2.179l1.77,0.608c0.186,0.064,0.302,0.25,0.278,0.445
		l-2.17,17.451c-0.032,0.261-0.211,0.481-0.46,0.566l-1.699,0.584h4.281h0.584c0.591,0,1.09-0.461,1.166-1.077l2.31-18.577h-1.78
		H22.047z"/>
	<path clip-path="url(#SVGID_2_)" fill="#FFFFFF" d="M18.222,1.12h-2.105h-2.175l1.767,0.608c0.186,0.064,0.302,0.249,0.278,0.445
		l-0.876,7.066l-0.407,4.084L10.2,1.12H8.298H6.151H4.018l1.726,0.594C5.93,1.778,6.046,1.962,6.022,2.159l-2.17,17.466
		c-0.033,0.262-0.211,0.482-0.46,0.567l-1.728,0.595h4.28h0.444c0.591,0,1.09-0.462,1.166-1.078l0.873-7.041l0.407-4.085
		l3.988,10.803c0.133,0.363-0.057,0.765-0.423,0.891l-1.482,0.51h4.28h1.158c0.59,0,1.089-0.461,1.166-1.078l2.31-18.589H18.222z"/>
	<path clip-path="url(#SVGID_2_)" fill="#FFFFFF" d="M41.32,3.569l0.299-2.45H31.085H29.09h-2.285l1.874,0.645
		c0.186,0.064,0.301,0.249,0.278,0.444l-0.299,2.441h4.313l-1.87,14.991c-0.032,0.262-0.211,0.481-0.46,0.567l-1.683,0.579h4.281
		h0.568c0.591,0,1.09-0.461,1.167-1.077l1.878-15.06h3.301C40.745,4.649,41.245,4.188,41.32,3.569"/>
	<path clip-path="url(#SVGID_2_)" fill="#FFFFFF" d="M46.371,1.12h-1.97h-2.31l1.896,0.652c0.187,0.064,0.302,0.25,0.278,0.445
		l-2.164,17.42c-0.033,0.262-0.211,0.482-0.46,0.567l-1.694,0.583h4.281h8.123c0.591,0,1.091-0.463,1.166-1.081l0.3-2.449h-7.547
		l0.599-4.74h5.314c0.592,0,1.091-0.463,1.167-1.081l0.299-2.449h-6.349l0.551-4.337h6.512c0.592,0,1.091-0.463,1.167-1.08
		l0.299-2.45H46.371z"/>
	<path clip-path="url(#SVGID_2_)" fill="#FFFFFF" d="M22.634,1.12h-2.179l1.77,0.609c0.186,0.064,0.302,0.249,0.278,0.445
		l-2.17,17.461c-0.032,0.262-0.211,0.482-0.46,0.567l-1.699,0.585h4.281h0.584c0.591,0,1.09-0.461,1.166-1.078l2.31-18.589h-1.78
		H22.634z"/>
	<path clip-path="url(#SVGID_2_)" fill="#27263B" d="M3.925,29.956c1.391,0,1.691-0.84,1.884-2.394l0.054-0.437
		c0.192-1.554-0.011-2.371-1.403-2.371H3.979l-0.643,5.202H3.925z M7.875,27.562c-0.385,3.107-1.445,4.281-4.068,4.281h-2.73
		l1.092-8.977h2.623c2.623,0,3.522,1.151,3.137,4.259L7.875,27.562z"/>
	<polygon clip-path="url(#SVGID_2_)" fill="#27263B" points="14.822,22.866 14.597,24.754 11.386,24.754 11.193,26.319 
		13.87,26.319 13.634,28.207 10.958,28.207 10.745,29.956 13.956,29.956 13.73,31.843 8.485,31.843 9.578,22.866 	"/>
	<polygon clip-path="url(#SVGID_2_)" fill="#27263B" points="14.93,31.843 16.021,22.866 18.056,22.866 17.188,29.957 
		20.132,29.957 19.908,31.843 	"/>
	<polygon clip-path="url(#SVGID_2_)" fill="#27263B" points="22.926,31.843 20.892,31.843 21.984,22.866 24.018,22.866 	"/>
	<polygon clip-path="url(#SVGID_2_)" fill="#27263B" points="25.838,31.843 24.939,22.866 27.112,22.866 27.529,29.311 
		29.52,22.866 31.704,22.866 28.621,31.843 	"/>
	<polygon clip-path="url(#SVGID_2_)" fill="#27263B" points="37.816,22.866 37.591,24.754 34.38,24.754 34.188,26.319 
		36.863,26.319 36.628,28.207 33.953,28.207 33.738,29.956 36.949,29.956 36.725,31.843 31.479,31.843 32.571,22.866 	"/>
	<path clip-path="url(#SVGID_2_)" fill="#27263B" d="M41.488,26.872c0.396,0,0.92-0.172,0.995-1.001l0.011-0.127
		c0.075-0.851-0.343-0.989-0.739-0.989h-0.931l-0.268,2.117H41.488z M39.958,31.843h-2.034l1.092-8.977h2.879
		c1.414,0,2.976,0.322,2.666,2.808l-0.032,0.253c-0.182,1.462-0.825,2.188-1.606,2.532l0.888,3.384h-2.194l-0.717-3.084h-0.568
		L39.958,31.843z"/>
	<polygon clip-path="url(#SVGID_2_)" fill="#27263B" points="48.682,31.843 46.647,31.843 46.979,29.082 45.374,22.866 
		47.601,22.866 48.328,26.388 49.912,22.866 52.14,22.866 49.014,29.082 	"/>
	<path clip-path="url(#SVGID_2_)" fill="#FFFFFF" d="M74.182,43.959c0.088-0.484,0.737-0.931,0.737-1.438
		c0-0.087-0.022-0.171-0.055-0.254c-0.103-0.373-0.487-0.718-0.648-1.077l-0.034-0.106c-0.089-0.497,0.364-1.133,0.191-1.597
		l-0.013-0.023l-0.017-0.077c-0.177-0.477-0.945-0.681-1.2-1.112l-0.066-0.152c-0.076-0.32-0.052-0.711-0.146-1.02
		c-0.029-0.154-0.077-0.295-0.172-0.405c-0.329-0.385-1.123-0.318-1.515-0.642c-0.391-0.323-0.462-1.103-0.907-1.355h-0.001
		c-0.235-0.134-0.553-0.102-0.87-0.07c-0.275,0.027-0.552,0.055-0.776-0.025c-0.477-0.171-0.814-0.878-1.325-0.966
		c-0.497-0.086-1.061,0.465-1.582,0.465s-1.085-0.551-1.581-0.465l0.001,0.009l-0.002-0.009c-0.51,0.088-0.848,0.795-1.325,0.966
		c-0.225,0.08-0.5,0.054-0.776,0.027c-0.306-0.03-0.611-0.061-0.845,0.059l-0.003,0.001l-0.022,0.009l-0.007,0.005l-0.014,0.007
		l-0.042,0.028l0.003,0.006c-0.39,0.287-0.476,1.001-0.848,1.31c-0.385,0.316-1.153,0.262-1.494,0.623l-0.006-0.005l-0.036,0.036
		l-0.03,0.039l0.013,0.011c-0.267,0.397-0.101,1.099-0.346,1.515c-0.249,0.423-0.986,0.629-1.184,1.083l-0.016-0.005l-0.021,0.046
		l-0.014,0.048l0.02,0.007c-0.113,0.461,0.291,1.065,0.205,1.543c-0.085,0.477-0.701,0.915-0.732,1.411h-0.022l-0.004,0.05
		l0.004,0.051h0.026c0.049,0.486,0.646,0.92,0.729,1.388c0.087,0.486-0.332,1.101-0.201,1.564l-0.023,0.009l0.014,0.048l0.021,0.046
		l0.025-0.009c0.052,0.108,0.131,0.204,0.231,0.291c0.198,0.189,0.481,0.341,0.71,0.517c0.094,0.078,0.177,0.161,0.232,0.257
		c0.248,0.42,0.074,1.135,0.354,1.53l-0.021,0.016l0.03,0.042l0.036,0.035l0.02-0.016c0.079,0.079,0.177,0.141,0.289,0.188
		c0.311,0.144,0.726,0.185,1.036,0.326l0.155,0.099c0.375,0.31,0.459,1.033,0.856,1.315l-0.012,0.022l0.042,0.027l0.046,0.022
		l0.011-0.02c0.056,0.027,0.114,0.048,0.177,0.06c0.209,0.054,0.455,0.03,0.703,0.006c0.197-0.02,0.396-0.039,0.576-0.018
		l0.154,0.034c0.455,0.163,0.786,0.811,1.26,0.944l-0.004,0.021l0.049,0.012l0.052,0.005l0.003-0.015l0.159,0.003
		c0.457-0.027,0.959-0.463,1.427-0.465c0.457,0.021,0.943,0.436,1.388,0.465l0.083-0.001l0.002,0.013l0.051-0.005l0.043-0.01
		l0.016-0.001c0.51-0.087,0.848-0.789,1.323-0.958c0.225-0.079,0.501-0.053,0.775-0.025c0.317,0.031,0.634,0.063,0.87-0.07
		c0.444-0.251,0.515-1.022,0.906-1.343c0.392-0.321,1.184-0.255,1.514-0.638c0.327-0.381,0.125-1.13,0.382-1.563
		c0.254-0.429,1.023-0.631,1.199-1.103C74.546,45.091,74.093,44.456,74.182,43.959"/>
	<path clip-path="url(#SVGID_2_)" fill="#CCD52A" d="M65.767,36.121c3.557,0,6.451,2.843,6.451,6.335
		c0,3.493-2.895,6.335-6.451,6.335s-6.452-2.842-6.452-6.335C59.314,38.963,62.21,36.121,65.767,36.121 M65.767,35.573
		c-3.865,0-7.01,3.087-7.01,6.883c0,3.795,3.145,6.884,7.01,6.884s7.01-3.089,7.01-6.884C72.776,38.66,69.632,35.573,65.767,35.573"
		/>
	<path clip-path="url(#SVGID_2_)" fill="#D5E070" d="M65.876,37.208c-3.121,0-5.649,2.548-5.649,5.689
		c0,0.265,0.019,0.525,0.054,0.781c-0.008-0.127-0.014-0.255-0.014-0.385c0-3.204,2.634-5.803,5.884-5.803
		c1.215,0,2.343,0.363,3.28,0.985C68.46,37.684,67.224,37.208,65.876,37.208"/>
	<path clip-path="url(#SVGID_2_)" fill="#D5E070" d="M71.342,41.411c0.009,0.128,0.014,0.256,0.014,0.385
		c0,3.205-2.634,5.803-5.884,5.803c-1.214,0-2.344-0.363-3.28-0.985c0.971,0.792,2.207,1.269,3.555,1.269
		c3.12,0,5.649-2.547,5.649-5.689C71.396,41.927,71.376,41.667,71.342,41.411"/>
	<path clip-path="url(#SVGID_2_)" fill="#27263B" d="M73.62,19.679H62.034c-0.608,0-1.102-0.51-1.102-1.14l1.476-11.505
		c0-0.63,0.493-1.14,1.1-1.14h6.69c0.481,0,0.908,0.326,1.051,0.804l3.422,11.505C74.89,18.937,74.361,19.679,73.62,19.679
		 M85.826,35.972c-0.648,0-1.174-0.451-1.174-1.008V24.257c0-0.392-0.265-0.747-0.679-0.913l-4.037-3.295
		c-0.297-0.119-0.522-0.339-0.623-0.607l-3.93-14.35c-0.037-0.099-0.056-0.202-0.056-0.306l-1.253-3.779
		C74.075,0.451,73.549,0,72.901,0H59.603c-0.647,0-1.173,0.451-1.173,1.007l-6.36,38.718c0,0.556,0.525,1.007,1.174,1.007h2.576
		c0.765-4.622,4.847-8.15,9.77-8.15c4.922,0,9.004,3.528,9.769,8.15h2.867h7.602c0.647,0,1.174-0.451,1.174-1.007v-2.324
		C87,36.845,86.474,35.972,85.826,35.972"/>
	<path clip-path="url(#SVGID_2_)" fill="#27263B" d="M9.336,35.992l-0.4,2.71h0.79c0.598,0,1.106-0.336,1.224-1.168
		c0.062-0.475,0.073-0.571,0.073-0.662c0-0.618-0.366-0.88-0.897-0.88H9.336z M11.582,36.819c0,0.112-0.011,0.213-0.073,0.715
		c-0.142,1.115-0.835,1.643-1.857,1.643H8.309l0.548-3.659H10.2C10.989,35.517,11.582,35.939,11.582,36.819"/>
	<path clip-path="url(#SVGID_2_)" fill="#27263B" d="M14.583,37.101c0,0.112-0.045,0.326-0.062,0.353h-0.468
		c0.022-0.145,0.022-0.16,0.022-0.188c0-0.196-0.13-0.469-0.479-0.469c-0.44,0-0.638,0.411-0.689,0.752l-0.242,1.627h-0.531
		l0.407-2.726h0.394v0.405c0.017-0.043,0.271-0.459,0.926-0.459C14.335,36.397,14.583,36.697,14.583,37.101"/>
	<path clip-path="url(#SVGID_2_)" fill="#27263B" d="M15.994,35.799H15.44l0.068-0.464h0.553L15.994,35.799z M15.48,39.176h-0.53
		l0.406-2.726h0.53L15.48,39.176z"/>
	<path clip-path="url(#SVGID_2_)" fill="#27263B" d="M19.199,37.15c0,0.085-0.073,0.597-0.147,1.077l-0.141,0.949h-0.53l0.135-0.891
		c0.062-0.459,0.136-0.923,0.136-1.008c0-0.342-0.209-0.48-0.525-0.48c-0.401,0-0.818,0.331-0.88,0.757l-0.243,1.622h-0.53
		l0.406-2.726h0.395v0.399c0.316-0.324,0.677-0.452,1.032-0.452C18.82,36.398,19.199,36.626,19.199,37.15"/>
	<polygon clip-path="url(#SVGID_2_)" fill="#27263B" points="20.586,37.971 22.098,36.451 22.679,36.451 21.37,37.774 
		22.346,39.177 21.703,39.177 20.992,38.163 20.49,38.59 20.406,39.177 19.875,39.177 20.445,35.335 20.975,35.335 	"/>
	<path clip-path="url(#SVGID_2_)" fill="#27263B" d="M25.924,37.544c-0.592,0-0.982,0.219-0.982,0.661
		c0,0.357,0.356,0.496,0.813,0.496h0.637l0.175-1.157H25.924z M26.494,35.501l-0.068,0.485c-0.096-0.026-0.197-0.048-0.31-0.048
		c-0.48,0-0.846,0.181-0.846,0.57c0,0.319,0.259,0.56,0.682,0.56h0.694l0.271-0.763h0.384l-0.113,0.763h0.609l-0.067,0.476h-0.61
		l-0.242,1.633h-1.27c-0.677,0-1.224-0.272-1.224-0.87c0-0.581,0.378-0.892,0.846-1.02l0.023-0.011
		c-0.311-0.144-0.531-0.356-0.531-0.736c0-0.703,0.598-1.076,1.428-1.076C26.28,35.464,26.387,35.48,26.494,35.501"/>
	<polygon clip-path="url(#SVGID_2_)" fill="#27263B" points="32.485,35.992 30.674,35.992 30.51,37.107 32.09,37.107 32.018,37.582 
		30.438,37.582 30.2,39.177 29.647,39.177 30.194,35.517 32.632,35.517 	"/>
	<path clip-path="url(#SVGID_2_)" fill="#27263B" d="M33.219,38.11c0,0.506,0.293,0.72,0.677,0.72c0.739,0,0.97-0.726,0.97-1.307
		c0-0.512-0.287-0.726-0.671-0.726C33.428,36.797,33.219,37.528,33.219,38.11 M35.408,37.448c0,0.88-0.384,1.782-1.574,1.782
		c-0.655,0-1.151-0.342-1.151-1.051c0-0.875,0.384-1.782,1.574-1.782C34.912,36.397,35.408,36.739,35.408,37.448"/>
	<path clip-path="url(#SVGID_2_)" fill="#27263B" d="M36.525,38.11c0,0.506,0.293,0.72,0.677,0.72c0.739,0,0.97-0.726,0.97-1.307
		c0-0.512-0.287-0.726-0.671-0.726C36.734,36.797,36.525,37.528,36.525,38.11 M38.714,37.448c0,0.88-0.384,1.782-1.574,1.782
		c-0.655,0-1.151-0.342-1.151-1.051c0-0.875,0.384-1.782,1.574-1.782C38.218,36.397,38.714,36.739,38.714,37.448"/>
	<path clip-path="url(#SVGID_2_)" fill="#27263B" d="M39.826,38.147c0,0.512,0.237,0.683,0.615,0.683
		c0.631,0,0.914-0.607,0.914-1.35c0-0.512-0.249-0.684-0.615-0.684C40,36.796,39.826,37.603,39.826,38.147 M41.727,38.686
		c0,0.101,0.062,0.144,0.135,0.144c0.085,0,0.203-0.037,0.265-0.075l-0.05,0.368c-0.074,0.043-0.232,0.107-0.435,0.107
		c-0.333,0-0.429-0.182-0.429-0.4c-0.242,0.251-0.541,0.4-0.93,0.4c-0.565,0-0.982-0.331-0.982-1.067
		c0-1.146,0.626-1.765,1.365-1.765c0.39,0,0.672,0.165,0.807,0.398l0.22-1.461h0.53C41.981,36.915,41.727,38.531,41.727,38.686"/>
	<path clip-path="url(#SVGID_2_)" fill="#FFFFFF" d="M79.178,2.529c0.261,0,0.43-0.169,0.43-0.451c0-0.274-0.169-0.429-0.43-0.429
		h-0.422v0.88H79.178z M78.256,1.269h1.021c0.5,0,0.837,0.316,0.837,0.809c0,0.408-0.267,0.648-0.485,0.704v0.014
		c0,0,0.028,0.028,0.092,0.148l0.507,0.978h-0.549l-0.493-1.027h-0.429v1.027h-0.5V1.269z M79.114,4.696
		c1.133,0,2.006-0.915,2.006-2.09c0-1.175-0.873-2.09-2.006-2.09c-1.119,0-1.984,0.915-1.984,2.09
		C77.13,3.781,77.995,4.696,79.114,4.696 M79.114,0.037c1.401,0,2.521,1.14,2.521,2.569c0,1.429-1.119,2.569-2.521,2.569
		c-1.387,0-2.499-1.14-2.499-2.569C76.615,1.177,77.728,0.037,79.114,0.037"/>
</g>
</svg>
