<?xml version="1.0" encoding="utf-8"?>
<!-- Generator: Adobe Illustrator 16.0.0, SVG Export Plug-In . SVG Version: 6.00 Build 0)  -->
<!DOCTYPE svg PUBLIC "-//W3C//DTD SVG 1.1//EN" "http://www.w3.org/Graphics/SVG/1.1/DTD/svg11.dtd">
<svg version="1.1" id="Layer_1" xmlns="http://www.w3.org/2000/svg" xmlns:xlink="http://www.w3.org/1999/xlink" x="0px" y="0px"
	 width="12.374px" height="12.375px" viewBox="0 0 12.374 12.375" enable-background="new 0 0 12.374 12.375" xml:space="preserve">
<g>
	<defs>
		<rect id="SVGID_1_" y="0" width="12.374" height="12.375"/>
	</defs>
	<clipPath id="SVGID_2_">
		<use xlink:href="#SVGID_1_"  overflow="visible"/>
	</clipPath>
	<path clip-path="url(#SVGID_2_)" fill="#FFFFFF" d="M7.77,0c0,0-0.605,0-0.605,0.605v4c0,0,0,0.606,0.605,0.606h4
		c0,0,0.604,0,0.604-0.606v-4c0,0,0-0.605-0.604-0.605H7.77z"/>
	<path clip-path="url(#SVGID_2_)" fill="#FFFFFF" d="M0.605,0C0.605,0,0,0,0,0.605v4c0,0,0,0.606,0.605,0.606h4
		c0,0,0.605,0,0.605-0.606v-4c0,0,0-0.605-0.605-0.605H0.605z"/>
	<path clip-path="url(#SVGID_2_)" fill="#FFFFFF" d="M7.77,7.165c0,0-0.605,0-0.605,0.604v4c0,0,0,0.606,0.605,0.606h4
		c0,0,0.604,0,0.604-0.606v-4c0,0,0-0.604-0.604-0.604H7.77z"/>
	<path clip-path="url(#SVGID_2_)" fill="#FFFFFF" d="M0.605,7.165c0,0-0.605,0-0.605,0.604v4c0,0,0,0.606,0.605,0.606h4
		c0,0,0.605,0,0.605-0.606v-4c0,0,0-0.604-0.605-0.604H0.605z"/>
</g>
</svg>
