<?xml version="1.0" encoding="utf-8"?>
<!-- Generator: Adobe Illustrator 16.0.0, SVG Export Plug-In . SVG Version: 6.00 Build 0)  -->
<!DOCTYPE svg PUBLIC "-//W3C//DTD SVG 1.1//EN" "http://www.w3.org/Graphics/SVG/1.1/DTD/svg11.dtd">
<svg version="1.1" id="Layer_1" xmlns="http://www.w3.org/2000/svg" xmlns:xlink="http://www.w3.org/1999/xlink" x="0px" y="0px"
	 width="96.445px" height="132.567px" viewBox="0 0 96.445 132.567" enable-background="new 0 0 96.445 132.567"
	 xml:space="preserve">
<g>
	<defs>
		<rect id="SVGID_1_" width="96.445" height="132.567"/>
	</defs>
	<clipPath id="SVGID_2_">
		<use xlink:href="#SVGID_1_"  overflow="visible"/>
	</clipPath>
	<path clip-path="url(#SVGID_2_)" fill="#27263B" d="M12.11,33.176C20.398,13.286,43.379,3.823,63.27,12.11
		c19.89,8.288,29.353,31.269,21.064,51.159c-8.288,19.89-31.269,29.353-51.158,21.065C13.286,76.047,3.823,53.065,12.11,33.176
		 M3.721,29.68C-5.138,50.94,2.364,74.93,20.46,87.646c2.191,1.54-7.382,44.921-7.382,44.921s24.101-37.326,26.875-36.841
		c21.715,3.802,43.937-7.758,52.771-28.961c10.239-24.578-1.383-52.803-25.959-63.044C42.187-6.52,13.961,5.102,3.721,29.68"/>
</g>
<path fill="#27263B" d="M54.695,60.403h10.56v10.049h-10.56V60.403z M66.21,23.515l-2.672,33.218h-7.126L53.74,23.515H66.21z"/>
<path fill="#27263B" d="M34.111,60.403h10.561v10.049H34.111V60.403z M45.626,23.515l-2.672,33.218h-7.126l-2.672-33.218H45.626z"/>
</svg>
