<?xml version="1.0" encoding="utf-8"?>
<!-- Generator: Adobe Illustrator 16.0.0, SVG Export Plug-In . SVG Version: 6.00 Build 0)  -->
<!DOCTYPE svg PUBLIC "-//W3C//DTD SVG 1.1//EN" "http://www.w3.org/Graphics/SVG/1.1/DTD/svg11.dtd">
<svg version="1.1" id="Layer_1" xmlns="http://www.w3.org/2000/svg" xmlns:xlink="http://www.w3.org/1999/xlink" x="0px" y="0px"
	 width="1240px" height="730px" viewBox="0 0 1240 730" enable-background="new 0 0 1240 730" xml:space="preserve">
<rect fill="#27263B" width="1240" height="730"/>
<polygon fill="#F4F4F4" points="31.554,203.77 36.463,205.094 31.554,206.419 30.232,211.326 28.907,206.419 24,205.094 
	28.907,203.77 30.232,198.863 "/>
<polygon fill="#F4F4F4" points="417.091,134.64 422,135.965 417.091,137.29 415.769,142.197 414.444,137.29 409.537,135.965 
	414.444,134.64 415.769,129.734 "/>
<polygon fill="#F4F4F4" points="195.646,119.685 200.556,121.01 195.646,122.334 194.325,127.242 193,122.334 188.093,121.01 
	193,119.685 194.325,114.779 "/>
<polygon fill="#F4F4F4" points="350.727,122.178 355.636,123.502 350.727,124.828 349.405,129.734 348.08,124.828 343.173,123.502 
	348.08,122.178 349.405,117.271 "/>
<polygon fill="#F4F4F4" points="238.256,419.727 243.165,421.052 238.256,422.376 236.934,427.283 235.609,422.376 230.702,421.052 
	235.609,419.727 236.934,414.82 "/>
<polygon fill="#F4F4F4" points="363.189,438.69 368.098,440.016 363.189,441.34 361.867,446.247 360.542,441.34 355.635,440.016 
	360.542,438.69 361.867,433.784 "/>
<polygon fill="#F4F4F4" points="75.925,144.61 80.833,145.935 75.925,147.26 74.603,152.167 73.278,147.26 68.371,145.935 
	73.278,144.61 74.603,139.704 "/>
<polygon fill="#F4F4F4" points="426.424,402.786 433.348,404.656 426.424,406.523 424.559,413.446 422.689,406.523 415.769,404.656 
	422.689,402.786 424.559,395.866 "/>
<polygon fill="#F4F4F4" points="204.979,464.276 211.904,466.146 204.979,468.014 203.115,474.937 201.245,468.014 194.325,466.146 
	201.245,464.276 203.115,457.356 "/>
<polyline fill="#F4F4F4" points="25.794,370.426 26.746,366.887 27.699,370.426 31.239,371.38 27.699,372.334 26.746,375.873 
	25.794,372.334 22.254,371.38 "/>
<polygon fill="#FFFFFF" points="27.817,371.38 29.27,373.905 26.746,372.451 24.223,373.905 25.674,371.38 24.223,368.855 
	26.746,370.309 29.27,368.855 "/>
<polygon fill="#F4F4F4" points="405.608,156.093 409.538,157.153 405.608,158.211 404.552,162.137 403.496,158.211 399.566,157.153 
	403.496,156.093 404.552,152.167 "/>
<polygon fill="#FFFFFF" points="405.741,157.152 407.351,159.955 404.552,158.342 401.753,159.955 403.363,157.152 401.753,154.351 
	404.552,155.963 407.351,154.351 "/>
<polygon fill="#F4F4F4" points="395.902,394.807 399.831,395.867 395.902,396.925 394.846,400.852 393.789,396.925 389.86,395.867 
	393.789,394.807 394.846,390.881 "/>
<polygon fill="#FFFFFF" points="396.035,395.867 397.645,398.669 394.846,397.056 392.047,398.669 393.657,395.867 392.047,393.064 
	394.846,394.677 397.645,393.064 "/>
<polygon fill="#F4F4F4" points="103.542,424.742 107.47,425.803 103.542,426.86 102.485,430.786 101.428,426.86 97.5,425.803 
	101.428,424.742 102.485,420.816 "/>
<polygon fill="#FFFFFF" points="103.674,425.802 105.284,428.604 102.485,426.991 99.686,428.604 101.296,425.802 99.686,423 
	102.485,424.611 105.284,423 "/>
<polygon fill="#F4F4F4" points="49.001,114.966 52.931,116.026 49.001,117.084 47.946,121.01 46.889,117.084 42.959,116.026 
	46.889,114.966 47.946,111.041 "/>
<polygon fill="#FFFFFF" points="49.134,116.026 50.744,118.828 47.945,117.215 45.146,118.828 46.756,116.026 45.146,113.224 
	47.945,114.836 50.744,113.224 "/>
<polygon fill="#F4F4F4" points="222.036,404.777 225.965,405.837 222.036,406.895 220.98,410.821 219.923,406.895 215.994,405.837 
	219.923,404.777 220.98,400.851 "/>
<polygon fill="#FFFFFF" points="222.169,405.836 223.779,408.639 220.979,407.025 218.181,408.639 219.791,405.836 218.181,403.034 
	220.979,404.646 223.779,403.034 "/>
<polygon fill="#F4F4F4" points="465.577,230.76 469.506,231.82 465.577,232.878 464.521,236.804 463.464,232.878 459.535,231.82 
	463.464,230.76 464.521,226.834 "/>
<polygon fill="#FFFFFF" points="465.709,231.819 467.319,234.622 464.521,233.008 461.722,234.622 463.332,231.819 461.722,229.018 
	464.521,230.629 467.319,229.018 "/>
<polygon fill="#F4F4F4" points="226.429,131.356 234.287,133.473 226.429,135.591 224.315,143.444 222.204,135.591 214.346,133.473 
	222.204,131.356 224.315,123.503 "/>
<polygon fill="#FFFFFF" points="226.695,133.474 229.915,139.079 224.316,135.853 218.719,139.079 221.94,133.474 218.719,127.871 
	224.316,131.097 229.915,127.871 "/>
<polygon fill="#F4F4F4" points="46.142,402.938 54,405.055 46.142,407.173 44.028,415.025 41.917,407.173 34.059,405.055 
	41.917,402.938 44.028,395.084 "/>
<polygon fill="#FFFFFF" points="46.407,405.055 49.627,410.66 44.028,407.434 38.431,410.66 41.652,405.055 38.431,399.452 
	44.028,402.678 49.627,399.452 "/>
<polygon fill="#F4F4F4" points="1193.305,528.94 1195.175,522.017 1197.042,528.94 1203.965,530.806 1197.042,532.676 
	1195.175,539.596 1193.305,532.676 1186.385,530.806 "/>
<polygon fill="#F4F4F4" points="1193.305,684.596 1195.175,677.672 1197.042,684.596 1203.965,686.461 1197.042,688.331 
	1195.175,695.251 1193.305,688.331 1186.385,686.461 "/>
<polygon fill="#F4F4F4" points="1154.351,559.446 1155.411,555.518 1156.469,559.446 1160.395,560.502 1156.469,561.56 
	1155.411,565.488 1154.351,561.56 1150.425,560.502 "/>
<polygon fill="#FFFFFF" points="1155.41,559.313 1158.212,557.703 1156.6,560.503 1158.212,563.302 1155.41,561.691 
	1152.608,563.302 1154.221,560.503 1152.608,557.703 "/>
<polygon fill="#F4F4F4" points="1131.592,697.097 1132.652,693.167 1133.71,697.097 1137.637,698.152 1133.71,699.209 
	1132.652,703.139 1131.592,699.209 1127.666,698.152 "/>
<polygon fill="#FFFFFF" points="1132.652,696.964 1135.454,695.354 1133.841,698.152 1135.454,700.951 1132.652,699.342 
	1129.85,700.951 1131.462,698.152 1129.85,695.354 "/>
<polygon fill="#F4F4F4" points="664.34,703.267 666.21,696.343 668.077,703.267 675,705.132 668.077,707.002 666.21,713.922 
	664.34,707.002 657.42,705.132 "/>
<polygon fill="#F4F4F4" points="744.183,556.171 742.065,564.029 739.947,556.171 732.095,554.057 739.947,551.946 742.065,544.088 
	744.183,551.946 752.035,554.057 "/>
<polygon fill="#FFFFFF" points="742.065,556.437 736.46,559.657 739.686,554.058 736.46,548.461 742.065,551.682 747.668,548.461 
	744.442,554.058 747.668,559.657 "/>
<polyline fill="#F4F4F4" points="585.447,543.136 588.986,544.088 585.447,545.041 584.493,548.581 583.539,545.041 580,544.088 
	583.539,543.136 584.493,539.596 "/>
<polygon fill="#FFFFFF" points="584.493,545.159 581.968,546.612 583.422,544.088 581.968,541.564 584.493,543.016 587.018,541.564 
	585.564,544.088 587.018,546.612 "/>
<polyline fill="#F4F4F4" points="651.947,690.896 655.486,691.849 651.947,692.802 650.993,696.342 650.039,692.802 646.5,691.849 
	650.039,690.896 650.993,687.356 "/>
<polygon fill="#FFFFFF" points="650.993,692.92 648.468,694.373 649.922,691.849 648.468,689.326 650.993,690.776 653.518,689.326 
	652.064,691.849 653.518,694.373 "/>
<polygon fill="#F4F4F4" points="1214.906,545.909 1216.23,541 1217.556,545.909 1222.463,547.23 1217.556,548.556 1216.23,553.463 
	1214.906,548.556 1210,547.23 "/>
<polygon fill="#F4F4F4" points="451.8,686.034 453.125,681.125 454.45,686.034 459.356,687.356 454.45,688.682 453.125,693.589 
	451.8,688.682 446.894,687.356 "/>
<polygon fill="#F4F4F4" points="1233.738,51.564 1229.812,52.622 1233.738,53.678 1234.798,57.608 1235.855,53.678 1239.782,52.622 
	1235.855,51.564 1234.798,47.637 "/>
<polygon fill="#FFFFFF" points="1234.798,51.433 1237.6,49.822 1235.986,52.622 1237.6,55.42 1234.798,53.811 1231.996,55.42 
	1233.607,52.622 1231.996,49.822 "/>
<polygon fill="#F4F4F4" points="1210.979,189.215 1212.039,185.286 1213.098,189.215 1217.023,190.271 1213.098,191.328 
	1212.039,195.257 1210.979,191.328 1207.054,190.271 "/>
<polygon fill="#FFFFFF" points="1212.039,189.083 1214.841,187.473 1213.229,190.271 1214.841,193.07 1212.039,191.46 
	1209.237,193.07 1210.85,190.271 1209.237,187.473 "/>
<polygon fill="#F4F4F4" points="743.728,195.385 745.598,188.461 747.465,195.385 754.388,197.25 747.465,199.121 745.598,206.041 
	743.728,199.121 736.808,197.25 "/>
<polygon fill="#F4F4F4" points="823.569,48.29 821.453,56.148 819.335,48.29 811.481,46.176 819.335,44.065 821.453,36.207 
	823.569,44.065 831.423,46.176 "/>
<polygon fill="#FFFFFF" points="821.452,48.556 815.848,51.776 819.073,46.177 815.848,40.58 821.452,43.801 827.056,40.58 
	823.829,46.177 827.056,51.776 "/>
<polyline fill="#F4F4F4" points="664.835,35.255 668.374,36.207 664.835,37.16 663.881,40.7 662.927,37.16 659.388,36.207 
	662.927,35.255 663.881,31.715 "/>
<polygon fill="#FFFFFF" points="663.881,37.278 661.355,38.731 662.81,36.207 661.355,33.684 663.881,35.135 666.405,33.684 
	664.951,36.207 666.405,38.731 "/>
<polyline fill="#F4F4F4" points="731.335,183.016 734.874,183.968 731.335,184.921 730.381,188.46 729.427,184.921 725.888,183.968 
	729.427,183.016 730.381,179.476 "/>
<polygon fill="#FFFFFF" points="730.381,185.039 727.855,186.492 729.31,183.968 727.855,181.444 730.381,182.896 732.905,181.444 
	731.451,183.968 732.905,186.492 "/>
<polygon fill="#F4F4F4" points="531.187,178.153 532.512,173.244 533.837,178.153 538.744,179.476 533.837,180.8 532.512,185.708 
	531.187,180.8 526.281,179.476 "/>
</svg>
